EESchema Schematic File Version 4
LIBS:3ARA_Shield-cache
EELAYER 29 0
EELAYER END
$Descr A4 11693 8268
encoding utf-8
Sheet 1 1
Title ""
Date ""
Rev ""
Comp ""
Comment1 ""
Comment2 ""
Comment3 ""
Comment4 ""
$EndDescr
Text Notes 750  850  0    157  ~ 0
STM32F407vgt6 Black Board
Text Notes 7850 900  0    157  ~ 0
Fuente 3.3V
$Comp
L 3ARA_CustomSymbols:STM32f407BlackBoard U?1
U 1 1 5F47286D
P 2450 2750
F 0 "U?1" H 2450 4206 157 0000 C CNN
F 1 "STM32f407BlackBoard" H 2450 3954 157 0000 C CNN
F 2 "3ARA_CustomComponents:STM32F407vgt6BlackBoard" H 2450 -1300 157 0001 C CNN
F 3 "" H 2450 2750 157 0001 C CNN
	1    2450 2750
	1    0    0    -1  
$EndComp
Text Label 1150 1850 0    50   ~ 0
MOTOR_2
Text Label 1150 1950 0    50   ~ 0
MOTOR_1
Text Label 1150 2050 0    50   ~ 0
USART2_TX
Text Label 1150 2150 0    50   ~ 0
USART2_RX
Text Label 1150 2450 0    50   ~ 0
TIM3_CH1
Text Label 1150 2550 0    50   ~ 0
TIM3_CH2
Wire Wire Line
	1150 1850 1850 1850
Wire Wire Line
	1850 1950 1150 1950
Wire Wire Line
	1150 2050 1850 2050
Wire Wire Line
	1850 2150 1150 2150
Wire Wire Line
	1150 2450 1850 2450
Wire Wire Line
	1850 2550 1150 2550
Text Label 1200 4550 0    50   ~ 0
MOTOR_3
Wire Wire Line
	1200 4550 1850 4550
Text Label 3600 2150 0    50   ~ 0
MOTOR_1_R
Text Label 1150 2250 0    50   ~ 0
MOTOR_1_L
Text Label 1200 5450 0    50   ~ 0
MOTOR_2_L
Text Label 1200 5250 0    50   ~ 0
MOTOR_2_R
Text Label 3600 4650 0    50   ~ 0
MOTOR_3_R
Text Label 3600 4450 0    50   ~ 0
MOTOR_3_L
Text Label 3600 4750 0    50   ~ 0
TIM4_CH1
Text Label 3600 4850 0    50   ~ 0
TIM4_CH2
Wire Wire Line
	3600 4750 3050 4750
Wire Wire Line
	3050 4850 3600 4850
Text Label 3600 5050 0    50   ~ 0
USER_BUTTON
Wire Wire Line
	3050 5050 3600 5050
Text Label 3600 2450 0    50   ~ 0
TIM8_CH1
Text Label 3600 2550 0    50   ~ 0
TIM8_CH2
Wire Wire Line
	3600 2450 3050 2450
Wire Wire Line
	3050 2550 3600 2550
Text Label 1150 3150 0    50   ~ 0
SWDIO
Text Label 1150 3250 0    50   ~ 0
SWCLK
Wire Wire Line
	1150 3150 1850 3150
Wire Wire Line
	1850 3250 1150 3250
Text Label 3600 4250 0    50   ~ 0
END_STOP_1
Text Label 1200 3850 0    50   ~ 0
SWO(SWIM)
Wire Wire Line
	1200 3850 1850 3850
Text Label 1200 3950 0    50   ~ 0
END_STOP_2
Text Label 1200 4050 0    50   ~ 0
END_STOP_3
Wire Wire Line
	1200 3950 1850 3950
Wire Wire Line
	1850 4050 1200 4050
Wire Notes Line width 39 style solid
	4400 7800 4400 450 
$Comp
L power:GND #PWR01
U 1 1 5F473382
P 5400 1600
F 0 "#PWR01" H 5400 1350 50  0001 C CNN
F 1 "GND" H 5405 1427 50  0000 C CNN
F 2 "" H 5400 1600 50  0001 C CNN
F 3 "" H 5400 1600 50  0001 C CNN
	1    5400 1600
	1    0    0    -1  
$EndComp
Wire Wire Line
	5100 1500 5400 1500
Wire Wire Line
	5400 1500 5400 1600
Wire Wire Line
	5100 1400 5400 1400
$Comp
L Connector:Conn_01x04_Male J2
U 1 1 5F474407
P 4800 3750
F 0 "J2" H 4908 4031 50  0000 C CNN
F 1 "Encoder_2" H 4908 3940 50  0000 C CNN
F 2 "Connector_PinHeader_2.54mm:PinHeader_1x04_P2.54mm_Vertical" H 4800 3750 50  0001 C CNN
F 3 "~" H 4800 3750 50  0001 C CNN
	1    4800 3750
	1    0    0    -1  
$EndComp
Text Label 5400 3650 0    50   ~ 0
3.3V
Text Label 5400 3750 0    50   ~ 0
TIM8_CH1
Text Label 5400 3850 0    50   ~ 0
TIM8_CH2
Wire Wire Line
	5400 3650 5000 3650
Wire Wire Line
	5000 3750 5400 3750
Wire Wire Line
	5400 3850 5000 3850
Wire Wire Line
	5000 3950 5400 3950
$Comp
L Connector:Conn_01x04_Male J1
U 1 1 5F476DBF
P 4800 3150
F 0 "J1" H 4908 3431 50  0000 C CNN
F 1 "Encoder_1" H 4908 3340 50  0000 C CNN
F 2 "Connector_PinHeader_2.54mm:PinHeader_1x04_P2.54mm_Vertical" H 4800 3150 50  0001 C CNN
F 3 "~" H 4800 3150 50  0001 C CNN
	1    4800 3150
	1    0    0    -1  
$EndComp
$Comp
L Connector:Conn_01x04_Male J3
U 1 1 5F477418
P 4800 4350
F 0 "J3" H 4908 4631 50  0000 C CNN
F 1 "Encoder_3" H 4908 4540 50  0000 C CNN
F 2 "Connector_PinHeader_2.54mm:PinHeader_1x04_P2.54mm_Vertical" H 4800 4350 50  0001 C CNN
F 3 "~" H 4800 4350 50  0001 C CNN
	1    4800 4350
	1    0    0    -1  
$EndComp
Text Label 5400 4250 0    50   ~ 0
3.3V
Text Label 5400 4350 0    50   ~ 0
TIM3_CH1
Text Label 5400 4450 0    50   ~ 0
TIM3_CH2
Wire Wire Line
	5400 4550 5000 4550
$Comp
L Connector:Conn_01x03_Male J4
U 1 1 5F47AD21
P 4800 5250
F 0 "J4" H 4908 5531 50  0000 C CNN
F 1 "Final de carrera 1" H 4908 5440 50  0000 C CNN
F 2 "Connector_PinHeader_2.54mm:PinHeader_1x03_P2.54mm_Vertical" H 4800 5250 50  0001 C CNN
F 3 "~" H 4800 5250 50  0001 C CNN
	1    4800 5250
	1    0    0    -1  
$EndComp
$Comp
L Connector:Conn_01x03_Male J5
U 1 1 5F47B759
P 4800 5750
F 0 "J5" H 4908 6031 50  0000 C CNN
F 1 "Final de carrera 2" H 4908 5940 50  0000 C CNN
F 2 "Connector_PinHeader_2.54mm:PinHeader_1x03_P2.54mm_Vertical" H 4800 5750 50  0001 C CNN
F 3 "~" H 4800 5750 50  0001 C CNN
	1    4800 5750
	1    0    0    -1  
$EndComp
$Comp
L Connector:Conn_01x03_Male J6
U 1 1 5F47BB59
P 4800 6200
F 0 "J6" H 4908 6481 50  0000 C CNN
F 1 "Final de carrera 3" H 4908 6390 50  0000 C CNN
F 2 "Connector_PinHeader_2.54mm:PinHeader_1x03_P2.54mm_Vertical" H 4800 6200 50  0001 C CNN
F 3 "~" H 4800 6200 50  0001 C CNN
	1    4800 6200
	1    0    0    -1  
$EndComp
Text Label 5400 5150 0    50   ~ 0
END_STOP_1
$Comp
L power:GND #PWR03
U 1 1 5F47C5FE
P 5400 3950
F 0 "#PWR03" H 5400 3700 50  0001 C CNN
F 1 "GND" V 5405 3822 50  0000 R CNN
F 2 "" H 5400 3950 50  0001 C CNN
F 3 "" H 5400 3950 50  0001 C CNN
	1    5400 3950
	0    -1   -1   0   
$EndComp
$Comp
L power:GND #PWR04
U 1 1 5F47D12A
P 5400 4550
F 0 "#PWR04" H 5400 4300 50  0001 C CNN
F 1 "GND" V 5405 4422 50  0000 R CNN
F 2 "" H 5400 4550 50  0001 C CNN
F 3 "" H 5400 4550 50  0001 C CNN
	1    5400 4550
	0    -1   -1   0   
$EndComp
$Comp
L power:GND #PWR05
U 1 1 5F47D6A6
P 5400 5250
F 0 "#PWR05" H 5400 5000 50  0001 C CNN
F 1 "GND" V 5405 5122 50  0000 R CNN
F 2 "" H 5400 5250 50  0001 C CNN
F 3 "" H 5400 5250 50  0001 C CNN
	1    5400 5250
	0    -1   -1   0   
$EndComp
$Comp
L power:GND #PWR06
U 1 1 5F47DE30
P 5400 5750
F 0 "#PWR06" H 5400 5500 50  0001 C CNN
F 1 "GND" V 5405 5622 50  0000 R CNN
F 2 "" H 5400 5750 50  0001 C CNN
F 3 "" H 5400 5750 50  0001 C CNN
	1    5400 5750
	0    -1   -1   0   
$EndComp
$Comp
L power:GND #PWR07
U 1 1 5F47E4EF
P 5400 6200
F 0 "#PWR07" H 5400 5950 50  0001 C CNN
F 1 "GND" V 5405 6072 50  0000 R CNN
F 2 "" H 5400 6200 50  0001 C CNN
F 3 "" H 5400 6200 50  0001 C CNN
	1    5400 6200
	0    -1   -1   0   
$EndComp
Text Label 5400 5350 0    50   ~ 0
3.3V
Text Label 5400 5850 0    50   ~ 0
3.3V
Text Label 5400 6300 0    50   ~ 0
3.3V
Text Label 5400 5650 0    50   ~ 0
END_STOP_2
Text Label 5400 6100 0    50   ~ 0
END_STOP_3
Wire Wire Line
	5000 5150 5400 5150
Wire Wire Line
	5400 5250 5000 5250
Wire Wire Line
	5000 5350 5400 5350
Wire Wire Line
	5400 5650 5000 5650
Wire Wire Line
	5000 5750 5400 5750
Wire Wire Line
	5400 5850 5000 5850
Wire Wire Line
	5000 6100 5400 6100
Wire Wire Line
	5400 6200 5000 6200
Wire Wire Line
	5000 6300 5400 6300
$Comp
L Connector:Conn_01x06_Female J8
U 1 1 5F485E2D
P 6700 5350
F 0 "J8" H 6592 4825 50  0000 C CNN
F 1 "HC-05" H 6592 4916 50  0000 C CNN
F 2 "Connector_PinHeader_2.54mm:PinHeader_1x06_P2.54mm_Vertical" H 6700 5350 50  0001 C CNN
F 3 "~" H 6700 5350 50  0001 C CNN
	1    6700 5350
	-1   0    0    1   
$EndComp
Text Label 7200 5150 0    50   ~ 0
3.3V
Text Label 7200 5350 0    50   ~ 0
USART2_RX
Text Label 7200 5450 0    50   ~ 0
USART2_TX
$Comp
L power:GND #PWR08
U 1 1 5F489753
P 7200 5250
F 0 "#PWR08" H 7200 5000 50  0001 C CNN
F 1 "GND" V 7205 5122 50  0000 R CNN
F 2 "" H 7200 5250 50  0001 C CNN
F 3 "" H 7200 5250 50  0001 C CNN
	1    7200 5250
	0    -1   -1   0   
$EndComp
Wire Wire Line
	6900 5150 7200 5150
Wire Wire Line
	7200 5250 6900 5250
Wire Wire Line
	6900 5350 7200 5350
Wire Wire Line
	7200 5450 6900 5450
$Comp
L Connector:Conn_01x03_Male J9
U 1 1 5F48E203
P 8200 4800
F 0 "J9" H 8308 5081 50  0000 C CNN
F 1 "Motor 1" H 8308 4990 50  0000 C CNN
F 2 "Connector_PinHeader_2.54mm:PinHeader_1x03_P2.54mm_Vertical" H 8200 4800 50  0001 C CNN
F 3 "~" H 8200 4800 50  0001 C CNN
	1    8200 4800
	1    0    0    -1  
$EndComp
$Comp
L Connector:Conn_01x03_Male J10
U 1 1 5F48FD1C
P 8200 5350
F 0 "J10" H 8308 5631 50  0000 C CNN
F 1 "Motor 2" H 8308 5540 50  0000 C CNN
F 2 "Connector_PinHeader_2.54mm:PinHeader_1x03_P2.54mm_Vertical" H 8200 5350 50  0001 C CNN
F 3 "~" H 8200 5350 50  0001 C CNN
	1    8200 5350
	1    0    0    -1  
$EndComp
$Comp
L Connector:Conn_01x03_Male J11
U 1 1 5F4900DB
P 8200 5850
F 0 "J11" H 8308 6131 50  0000 C CNN
F 1 "Motor 3" H 8308 6040 50  0000 C CNN
F 2 "Connector_PinHeader_2.54mm:PinHeader_1x03_P2.54mm_Vertical" H 8200 5850 50  0001 C CNN
F 3 "~" H 8200 5850 50  0001 C CNN
	1    8200 5850
	1    0    0    -1  
$EndComp
Text Label 8700 4700 0    50   ~ 0
MOTOR_1
Text Label 8700 5250 0    50   ~ 0
MOTOR_2
Text Label 8700 5750 0    50   ~ 0
MOTOR_3
Wire Wire Line
	8700 4700 8400 4700
Wire Wire Line
	8400 5250 8700 5250
Wire Wire Line
	8700 5750 8400 5750
Text Label 8700 5350 0    50   ~ 0
MOTOR_2_R
Text Label 8700 5450 0    50   ~ 0
MOTOR_2_L
Wire Wire Line
	8400 5350 8700 5350
Wire Wire Line
	8700 5450 8400 5450
Text Label 8700 5950 0    50   ~ 0
MOTOR_3_R
Text Label 8700 5850 0    50   ~ 0
MOTOR_3_L
Wire Wire Line
	8400 5850 8700 5850
Wire Wire Line
	8700 5950 8400 5950
Text Label 8700 4800 0    50   ~ 0
MOTOR_1_R
Text Label 8700 4900 0    50   ~ 0
MOTOR_1_L
Wire Wire Line
	8400 4800 8700 4800
Wire Wire Line
	8700 4900 8400 4900
$Comp
L Connector:Screw_Terminal_01x02 J7
U 1 1 5F49D287
P 4900 1500
F 0 "J7" H 4818 1175 50  0000 C CNN
F 1 "3.3V_Input" H 4818 1266 50  0000 C CNN
F 2 "Connector_PinHeader_2.54mm:PinHeader_1x02_P2.54mm_Vertical" H 4900 1500 50  0001 C CNN
F 3 "~" H 4900 1500 50  0001 C CNN
	1    4900 1500
	-1   0    0    1   
$EndComp
Text Label 7950 3650 0    50   ~ 0
SWCLK
Text Label 7950 3750 0    50   ~ 0
SWDIO
Text Label 7950 3950 0    50   ~ 0
3.3V
$Comp
L power:GND #PWR010
U 1 1 5F4A087A
P 8300 3950
F 0 "#PWR010" H 8300 3700 50  0001 C CNN
F 1 "GND" H 8305 3777 50  0000 C CNN
F 2 "" H 8300 3950 50  0001 C CNN
F 3 "" H 8300 3950 50  0001 C CNN
	1    8300 3950
	1    0    0    -1  
$EndComp
Text Label 6750 3750 0    50   ~ 0
SWO(SWIM)
Text Label 5400 3050 0    50   ~ 0
3.3V
$Comp
L power:GND #PWR02
U 1 1 5F4B029B
P 5400 3350
F 0 "#PWR02" H 5400 3100 50  0001 C CNN
F 1 "GND" V 5405 3222 50  0000 R CNN
F 2 "" H 5400 3350 50  0001 C CNN
F 3 "" H 5400 3350 50  0001 C CNN
	1    5400 3350
	0    -1   -1   0   
$EndComp
Wire Wire Line
	5400 3350 5000 3350
Wire Wire Line
	5000 3050 5400 3050
Text Label 5400 3150 0    50   ~ 0
TIM4_CH1
Text Label 5400 3250 0    50   ~ 0
TIM4_CH2
Wire Wire Line
	5000 3150 5400 3150
Wire Wire Line
	5400 3250 5000 3250
Wire Wire Line
	3600 4250 3050 4250
Text Label 5400 1400 0    50   ~ 0
3.3V
Wire Wire Line
	1200 5250 1850 5250
Wire Wire Line
	1200 5450 1850 5450
Wire Wire Line
	3600 2150 3050 2150
Wire Wire Line
	1150 2250 1850 2250
Wire Wire Line
	3600 4450 3050 4450
Wire Wire Line
	3050 4650 3600 4650
Text Label 3650 5250 0    50   ~ 0
3.3V
Wire Wire Line
	3050 5250 3650 5250
$Comp
L power:GND #PWR0101
U 1 1 5F49C394
P 3700 6050
F 0 "#PWR0101" H 3700 5800 50  0001 C CNN
F 1 "GND" V 3705 5922 50  0000 R CNN
F 2 "" H 3700 6050 50  0001 C CNN
F 3 "" H 3700 6050 50  0001 C CNN
	1    3700 6050
	1    0    0    -1  
$EndComp
$Comp
L Connector_Generic:Conn_02x05_Odd_Even J12
U 1 1 5F4A2BD9
P 7500 3850
F 0 "J12" H 7550 4267 50  0000 C CNN
F 1 "ST-Link" H 7550 4176 50  0000 C CNN
F 2 "Connector_PinHeader_2.54mm:PinHeader_2x05_P2.54mm_Vertical" H 7500 3850 50  0001 C CNN
F 3 "~" H 7500 3850 50  0001 C CNN
	1    7500 3850
	1    0    0    -1  
$EndComp
Wire Wire Line
	6750 3750 7300 3750
Wire Wire Line
	7800 3650 7950 3650
Wire Wire Line
	7950 3750 7800 3750
Wire Wire Line
	7800 3950 7950 3950
Wire Wire Line
	7800 3850 8300 3850
Wire Wire Line
	8300 3850 8300 3950
Wire Wire Line
	3050 5750 3700 5750
Wire Wire Line
	3700 5750 3700 6050
Wire Wire Line
	3050 6350 3200 6350
Wire Wire Line
	3200 6350 3200 6250
Wire Wire Line
	3200 6250 3050 6250
Wire Wire Line
	5000 4250 5400 4250
Wire Wire Line
	5000 4350 5400 4350
Wire Wire Line
	5400 4450 5000 4450
$Comp
L Device:LED D1
U 1 1 5F4D6DC3
P 8050 1450
F 0 "D1" H 8043 1195 50  0000 C CNN
F 1 "LED" H 8043 1286 50  0000 C CNN
F 2 "LED_THT:LED_D3.0mm" H 8050 1450 50  0001 C CNN
F 3 "~" H 8050 1450 50  0001 C CNN
	1    8050 1450
	-1   0    0    1   
$EndComp
$Comp
L Device:R_Small R1
U 1 1 5F4D7A04
P 8550 1450
F 0 "R1" V 8354 1450 50  0000 C CNN
F 1 "R_Small" V 8445 1450 50  0000 C CNN
F 2 "Resistor_THT:R_Axial_DIN0204_L3.6mm_D1.6mm_P7.62mm_Horizontal" H 8550 1450 50  0001 C CNN
F 3 "~" H 8550 1450 50  0001 C CNN
	1    8550 1450
	0    1    1    0   
$EndComp
$Comp
L power:GND #PWR0102
U 1 1 5F4D8663
P 8900 1550
F 0 "#PWR0102" H 8900 1300 50  0001 C CNN
F 1 "GND" H 8905 1377 50  0000 C CNN
F 2 "" H 8900 1550 50  0001 C CNN
F 3 "" H 8900 1550 50  0001 C CNN
	1    8900 1550
	1    0    0    -1  
$EndComp
Wire Wire Line
	8650 1450 8900 1450
Wire Wire Line
	8900 1450 8900 1550
Wire Wire Line
	8450 1450 8200 1450
Text Label 7500 1450 0    50   ~ 0
Led_2
Wire Wire Line
	7500 1450 7900 1450
Text Label 1250 6550 0    50   ~ 0
Led_2
Wire Wire Line
	1850 6550 1250 6550
$EndSCHEMATC
